# This file uses centimeters as units for non-parametric coordinates.

mtllib ring.mtl
g default
v 0.248520 0.951057 -0.309017
v 0.248520 0.809018 -0.587786
v 0.248520 0.587786 -0.809017
v 0.248520 0.309017 -0.951057
v 0.248520 0.000000 -1.000000
v 0.248520 -0.309017 -0.951057
v 0.248520 -0.587785 -0.809017
v 0.248520 -0.809017 -0.587785
v 0.248520 -0.951057 -0.309017
v 0.248520 -1.000000 0.000000
v 0.248520 -0.951057 0.309017
v 0.248520 -0.809017 0.587785
v 0.248520 -0.587785 0.809017
v 0.248520 -0.309017 0.951057
v 0.248520 -0.000000 1.000000
v 0.248520 0.309017 0.951057
v 0.248520 0.587785 0.809017
v 0.248520 0.809017 0.587785
v 0.248520 0.951057 0.309017
v 0.248520 1.000000 0.000000
v -0.248520 0.951057 -0.309017
v -0.248520 0.809018 -0.587786
v -0.248520 0.587786 -0.809017
v -0.248520 0.309017 -0.951057
v -0.248520 0.000000 -1.000000
v -0.248520 -0.309017 -0.951057
v -0.248520 -0.587785 -0.809017
v -0.248520 -0.809017 -0.587785
v -0.248520 -0.951057 -0.309017
v -0.248520 -1.000000 0.000000
v -0.248520 -0.951057 0.309017
v -0.248520 -0.809017 0.587785
v -0.248520 -0.587785 0.809017
v -0.248520 -0.309017 0.951057
v -0.248520 -0.000000 1.000000
v -0.248520 0.309017 0.951057
v -0.248520 0.587785 0.809017
v -0.248520 0.809017 0.587785
v -0.248520 0.951057 0.309017
v -0.248520 1.000000 0.000000
v 0.248520 0.883227 -0.286978
v -0.248520 0.883227 -0.286978
v -0.248520 0.751318 -0.545864
v 0.248520 0.751318 -0.545864
v -0.248520 0.545864 -0.751318
v 0.248520 0.545864 -0.751318
v -0.248520 0.286978 -0.883227
v 0.248520 0.286978 -0.883227
v -0.248520 0.000000 -0.928680
v 0.248520 0.000000 -0.928680
v -0.248520 -0.286978 -0.883227
v 0.248520 -0.286978 -0.883227
v -0.248520 -0.545864 -0.751318
v 0.248520 -0.545864 -0.751318
v -0.248520 -0.751318 -0.545864
v 0.248520 -0.751318 -0.545864
v -0.248520 -0.883227 -0.286978
v 0.248520 -0.883227 -0.286978
v -0.248520 -0.928679 0.000000
v 0.248520 -0.928679 0.000000
v -0.248520 -0.883227 0.286978
v 0.248520 -0.883227 0.286978
v -0.248520 -0.751317 0.545864
v 0.248520 -0.751317 0.545864
v -0.248520 -0.545864 0.751317
v 0.248520 -0.545864 0.751317
v -0.248520 -0.286978 0.883227
v 0.248520 -0.286978 0.883227
v -0.248520 -0.000000 0.928679
v 0.248520 -0.000000 0.928679
v -0.248520 0.286978 0.883227
v 0.248520 0.286978 0.883227
v -0.248520 0.545864 0.751317
v 0.248520 0.545864 0.751317
v -0.248520 0.751317 0.545864
v 0.248520 0.751317 0.545864
v -0.248520 0.883226 0.286978
v 0.248520 0.883226 0.286978
v -0.248520 0.928679 -0.000000
v 0.248520 0.928679 -0.000000
v 0.148277 1.040687 -0.338140
v 0.054265 1.076236 -0.349690
v 0.054265 0.915501 -0.665150
v 0.148277 0.885262 -0.643180
v -0.148277 0.885261 -0.643180
v -0.054265 0.915501 -0.665150
v -0.148277 1.040687 -0.338140
v -0.054265 1.076236 -0.349690
v 0.054265 0.665150 -0.915501
v 0.148277 0.643180 -0.885261
v -0.148277 0.643180 -0.885262
v -0.054265 0.665150 -0.915501
v 0.054265 0.349690 -1.076236
v 0.148277 0.338140 -1.040687
v -0.148277 0.338140 -1.040687
v -0.054265 0.349690 -1.076236
v 0.054265 0.000000 -1.131621
v 0.148277 0.000000 -1.094243
v -0.148277 -0.000000 -1.094243
v -0.054265 -0.000000 -1.131621
v 0.054265 -0.349690 -1.076235
v 0.148277 -0.338140 -1.040687
v -0.148277 -0.338140 -1.040687
v -0.054265 -0.349690 -1.076235
v 0.054265 -0.665150 -0.915501
v 0.148277 -0.643180 -0.885261
v -0.148277 -0.643180 -0.885261
v -0.054265 -0.665150 -0.915500
v 0.054265 -0.915500 -0.665150
v 0.148277 -0.885261 -0.643180
v -0.148277 -0.885261 -0.643180
v -0.054265 -0.915500 -0.665150
v 0.054265 -1.076235 -0.349690
v 0.148277 -1.040687 -0.338140
v -0.148277 -1.040687 -0.338140
v -0.054265 -1.076235 -0.349690
v 0.054265 -1.131621 -0.000000
v 0.148277 -1.094243 -0.000000
v -0.148277 -1.094243 0.000000
v -0.054265 -1.131621 0.000000
v 0.054265 -1.076235 0.349690
v 0.148277 -1.040687 0.338140
v -0.148277 -1.040687 0.338140
v -0.054265 -1.076235 0.349690
v 0.054265 -0.915500 0.665150
v 0.148277 -0.885261 0.643180
v -0.148277 -0.885261 0.643180
v -0.054265 -0.915501 0.665150
v 0.054265 -0.665150 0.915500
v 0.148277 -0.643180 0.885261
v -0.148277 -0.643180 0.885261
v -0.054265 -0.665150 0.915500
v 0.054265 -0.349690 1.076235
v 0.148277 -0.338140 1.040687
v -0.148277 -0.338140 1.040687
v -0.054265 -0.349690 1.076235
v 0.054265 -0.000000 1.131621
v 0.148277 -0.000000 1.094243
v -0.148277 0.000000 1.094243
v -0.054265 0.000000 1.131621
v 0.054265 0.349690 1.076235
v 0.148277 0.338140 1.040687
v -0.148277 0.338140 1.040687
v -0.054265 0.349690 1.076235
v 0.054265 0.665150 0.915500
v 0.148277 0.643180 0.885261
v -0.148277 0.643180 0.885261
v -0.054265 0.665150 0.915500
v 0.054265 0.915500 0.665150
v 0.148277 0.885261 0.643180
v -0.148277 0.885261 0.643180
v -0.054265 0.915500 0.665150
v 0.054265 1.076235 0.349690
v 0.148277 1.040687 0.338140
v -0.148277 1.040686 0.338140
v -0.054265 1.076235 0.349690
v 0.054265 1.131620 0.000000
v 0.148277 1.094243 0.000000
v -0.148277 1.094243 0.000000
v -0.054265 1.131620 0.000000
vt 0.057604 0.115139
vt 0.942396 0.331685
vt 0.954548 0.630426
vt 0.121942 0.404601
vt 0.905556 0.367396
vt 0.061097 0.106098
vt 0.162784 0.397862
vt 0.867121 0.368929
vt 0.205051 0.392978
vt 0.828686 0.370463
vt 0.248206 0.388899
vt 0.790251 0.371996
vt 0.291912 0.385112
vt 0.751816 0.373530
vt 0.335950 0.381369
vt 0.713380 0.375064
vt 0.380175 0.377556
vt 0.674945 0.376597
vt 0.424493 0.373636
vt 0.636510 0.378131
vt 0.468842 0.369602
vt 0.598075 0.379664
vt 0.513175 0.365462
vt 0.559640 0.381198
vt 0.557452 0.361230
vt 0.521204 0.382731
vt 0.601631 0.356924
vt 0.482769 0.384265
vt 0.645663 0.352570
vt 0.444334 0.385798
vt 0.689481 0.348218
vt 0.405899 0.387332
vt 0.732998 0.343958
vt 0.367464 0.388866
vt 0.776091 0.339968
vt 0.329028 0.390399
vt 0.818601 0.336586
vt 0.290593 0.391933
vt 0.860296 0.334456
vt 0.252158 0.393466
vt 0.900772 0.334857
vt 0.213723 0.395000
vt 0.185844 0.661097
vt 0.916308 0.031053
vt 0.939073 0.096299
vt 0.044865 0.229973
vt 0.060927 0.350525
vt 0.955135 0.216852
vt 0.091034 0.229117
vt 0.137208 0.226908
vt 0.183038 0.223744
vt 0.228492 0.220022
vt 0.273640 0.216005
vt 0.318571 0.211839
vt 0.363359 0.207606
vt 0.408060 0.203349
vt 0.452716 0.199094
vt 0.497358 0.194855
vt 0.542012 0.190644
vt 0.586706 0.186471
vt 0.631469 0.182344
vt 0.676339 0.178270
vt 0.721364 0.174245
vt 0.766605 0.170244
vt 0.812128 0.166196
vt 0.857995 0.161949
vt 0.904269 0.157219
vt 0.951174 0.151615
vt 0.097757 0.121220
vt 0.046340 0.173571
vt 0.078921 0.407180
vt 0.104713 0.341285
vt 0.139166 0.121690
vt 0.091935 0.176737
vt 0.119200 0.395584
vt 0.149401 0.334828
vt 0.181375 0.119557
vt 0.136892 0.176376
vt 0.160818 0.388719
vt 0.194274 0.329932
vt 0.224197 0.116162
vt 0.181535 0.173970
vt 0.203507 0.383782
vt 0.239151 0.325752
vt 0.267489 0.112161
vt 0.226029 0.170493
vt 0.246921 0.379676
vt 0.283979 0.321834
vt 0.311133 0.107894
vt 0.270461 0.166490
vt 0.290793 0.375873
vt 0.328745 0.317959
vt 0.355036 0.103536
vt 0.314878 0.162254
vt 0.334937 0.372117
vt 0.373449 0.314033
vt 0.399125 0.099179
vt 0.359306 0.157933
vt 0.379231 0.368297
vt 0.418096 0.310025
vt 0.443345 0.094870
vt 0.403757 0.153605
vt 0.423598 0.364371
vt 0.462694 0.305931
vt 0.487654 0.090635
vt 0.448237 0.149309
vt 0.467982 0.360332
vt 0.507248 0.301757
vt 0.532018 0.086492
vt 0.492753 0.145067
vt 0.512346 0.356189
vt 0.551763 0.297515
vt 0.576403 0.082453
vt 0.537307 0.140893
vt 0.556655 0.351954
vt 0.596244 0.293219
vt 0.620769 0.078527
vt 0.581904 0.136799
vt 0.600876 0.347645
vt 0.640694 0.288891
vt 0.665064 0.074707
vt 0.626551 0.132791
vt 0.644964 0.343288
vt 0.685122 0.284570
vt 0.709208 0.070951
vt 0.671255 0.128866
vt 0.688867 0.338930
vt 0.729539 0.280334
vt 0.753079 0.067148
vt 0.716021 0.124990
vt 0.732511 0.334663
vt 0.773971 0.276331
vt 0.796493 0.063042
vt 0.760849 0.121072
vt 0.775803 0.330662
vt 0.818465 0.272854
vt 0.839182 0.058106
vt 0.805726 0.116892
vt 0.818625 0.327267
vt 0.863108 0.270448
vt 0.880801 0.051240
vt 0.850599 0.111997
vt 0.860834 0.325134
vt 0.908065 0.270087
vt 0.921080 0.039644
vt 0.895287 0.105539
vt 0.902243 0.325605
vt 0.953660 0.273254
vt 0.681429 0.234985
vt 0.636641 0.239218
vt 0.591940 0.243475
vt 0.547284 0.247730
vt 0.502642 0.251969
vt 0.457988 0.256180
vt 0.413294 0.260353
vt 0.368531 0.264480
vt 0.323661 0.268554
vt 0.278636 0.272579
vt 0.233395 0.276580
vt 0.187872 0.280628
vt 0.142005 0.284876
vt 0.095731 0.289605
vt 0.048826 0.295210
vt 0.908966 0.217707
vt 0.862792 0.219916
vt 0.816962 0.223080
vt 0.771508 0.226802
vt 0.726360 0.230820
vt 0.878058 0.042223
vt 0.943992 0.365862
vt 0.175288 0.396533
vt 0.224279 0.659564
vt 0.083693 0.415771
vt 0.938903 0.340726
vt 0.837216 0.048962
vt 0.262714 0.658030
vt 0.794949 0.053847
vt 0.301149 0.656497
vt 0.751795 0.057925
vt 0.339585 0.654963
vt 0.708088 0.061712
vt 0.378020 0.653430
vt 0.664051 0.065456
vt 0.416455 0.651896
vt 0.619826 0.069268
vt 0.454890 0.650362
vt 0.575507 0.073188
vt 0.493325 0.648829
vt 0.531159 0.077222
vt 0.531761 0.647295
vt 0.486826 0.081362
vt 0.570196 0.645762
vt 0.442549 0.085594
vt 0.608631 0.644228
vt 0.398369 0.089900
vt 0.647066 0.642695
vt 0.354338 0.094254
vt 0.685501 0.641161
vt 0.310519 0.098606
vt 0.723937 0.639628
vt 0.267003 0.102866
vt 0.762372 0.638094
vt 0.223909 0.106856
vt 0.800807 0.636560
vt 0.181399 0.110238
vt 0.839242 0.635027
vt 0.139704 0.112368
vt 0.877677 0.633493
vt 0.099228 0.111967
vt 0.916113 0.631960
vn 0.000000 -0.951057 0.309016
vn 0.000000 -0.951057 0.309016
vn 0.000000 -0.809017 0.587785
vn 0.000000 -0.809017 0.587785
vn 0.000000 -0.587785 0.809017
vn 0.000000 -0.587785 0.809017
vn 0.000000 -0.309017 0.951057
vn 0.000000 -0.309017 0.951057
vn 0.000000 0.000000 1.000000
vn 0.000000 0.000000 1.000000
vn 0.000000 0.309017 0.951057
vn 0.000000 0.309017 0.951057
vn 0.000000 0.587786 0.809017
vn 0.000000 0.587786 0.809017
vn 0.000000 0.809017 0.587785
vn 0.000000 0.809017 0.587785
vn 0.000000 0.951057 0.309017
vn 0.000000 0.951057 0.309017
vn 0.000000 1.000000 0.000000
vn 0.000000 1.000000 0.000000
vn 0.000000 0.951057 -0.309017
vn 0.000000 0.951057 -0.309017
vn 0.000000 0.809017 -0.587785
vn 0.000000 0.809017 -0.587785
vn 0.000000 0.587785 -0.809017
vn 0.000000 0.587785 -0.809017
vn 0.000000 0.309017 -0.951057
vn 0.000000 0.309017 -0.951057
vn -0.000000 -0.000000 -1.000000
vn -0.000000 -0.000000 -1.000000
vn -0.000000 -0.309017 -0.951057
vn -0.000000 -0.309017 -0.951057
vn -0.000000 -0.587785 -0.809017
vn -0.000000 -0.587785 -0.809017
vn -0.000000 -0.809017 -0.587785
vn -0.000000 -0.809017 -0.587785
vn -0.000000 -0.951057 -0.309017
vn -0.000000 -0.951057 -0.309017
vn -0.000000 -1.000000 -0.000001
vn -0.000000 -1.000000 -0.000001
vn -1.000000 0.000000 0.000000
vn -1.000000 0.000000 0.000000
vn -1.000000 0.000000 0.000000
vn -1.000000 0.000000 0.000000
vn 1.000000 0.000000 0.000000
vn 1.000000 0.000000 0.000000
vn 1.000000 0.000000 0.000000
vn 1.000000 0.000000 0.000000
vn -1.000000 0.000000 0.000000
vn -1.000000 0.000000 0.000000
vn 1.000000 0.000000 0.000000
vn 1.000000 0.000000 0.000000
vn -1.000000 0.000000 0.000000
vn -1.000000 0.000000 0.000000
vn 1.000000 0.000000 -0.000000
vn 1.000000 0.000000 -0.000000
vn -1.000000 0.000000 0.000000
vn -1.000000 0.000000 0.000000
vn 1.000000 0.000000 -0.000000
vn 1.000000 0.000000 -0.000000
vn -1.000000 0.000000 0.000000
vn -1.000000 0.000000 0.000000
vn 1.000000 0.000000 0.000000
vn 1.000000 0.000000 0.000000
vn -1.000000 0.000000 0.000000
vn -1.000000 0.000000 0.000000
vn 1.000000 0.000000 0.000000
vn 1.000000 0.000000 0.000000
vn -1.000000 0.000000 0.000000
vn -1.000000 0.000000 0.000000
vn 1.000000 0.000000 0.000000
vn 1.000000 0.000000 0.000000
vn -1.000000 0.000000 0.000000
vn -1.000000 0.000000 0.000000
vn 1.000000 0.000000 0.000000
vn 1.000000 0.000000 0.000000
vn -1.000000 0.000000 0.000000
vn -1.000000 0.000000 0.000000
vn 1.000000 0.000000 0.000000
vn 1.000000 0.000000 0.000000
vn -1.000000 0.000000 0.000000
vn -1.000000 0.000000 0.000000
vn 1.000000 0.000000 0.000000
vn 1.000000 0.000000 0.000000
vn -1.000000 0.000000 0.000000
vn -1.000000 0.000000 0.000000
vn 1.000000 0.000000 0.000000
vn 1.000000 0.000000 0.000000
vn -1.000000 0.000000 0.000000
vn -1.000000 0.000000 0.000000
vn 1.000000 0.000000 0.000000
vn 1.000000 0.000000 0.000000
vn -1.000000 0.000000 0.000000
vn -1.000000 0.000000 0.000000
vn 1.000000 0.000000 0.000000
vn 1.000000 0.000000 0.000000
vn -1.000000 0.000000 -0.000000
vn -1.000000 0.000000 -0.000000
vn 1.000000 0.000000 0.000000
vn 1.000000 0.000000 0.000000
vn -1.000000 0.000000 -0.000000
vn -1.000000 0.000000 -0.000000
vn 1.000000 0.000000 0.000000
vn 1.000000 0.000000 0.000000
vn -1.000000 0.000000 0.000000
vn -1.000000 0.000000 0.000000
vn 1.000000 0.000000 0.000000
vn 1.000000 0.000000 0.000000
vn -1.000000 0.000000 0.000000
vn -1.000000 0.000000 0.000000
vn 1.000000 0.000000 0.000000
vn 1.000000 0.000000 0.000000
vn -1.000000 0.000000 0.000000
vn -1.000000 0.000000 0.000000
vn 1.000000 0.000000 0.000000
vn 1.000000 0.000000 0.000000
vn -1.000000 0.000000 0.000000
vn -1.000000 0.000000 0.000000
vn 1.000000 0.000000 0.000000
vn 1.000000 0.000000 0.000000
vn 0.553665 0.791983 -0.257330
vn 0.178987 0.935699 -0.304026
vn 0.178987 0.983851 0.000001
vn 0.553665 0.832740 0.000001
vn 0.553665 0.673700 -0.489472
vn 0.178987 0.795952 -0.578294
vn 0.553665 0.489472 -0.673701
vn 0.178987 0.578293 -0.795952
vn -0.553665 0.673700 -0.489472
vn -0.178988 0.795952 -0.578293
vn -0.178987 0.578293 -0.795953
vn -0.553665 0.489472 -0.673701
vn -0.553665 0.791983 -0.257330
vn -0.178988 0.935699 -0.304026
vn -0.553664 0.832740 0.000001
vn -0.178987 0.983851 0.000001
vn 0.553665 0.257331 -0.791982
vn 0.178987 0.304027 -0.935698
vn -0.178987 0.304027 -0.935698
vn -0.553665 0.257331 -0.791983
vn 0.553665 -0.000000 -0.832740
vn 0.178987 -0.000000 -0.983851
vn -0.178987 -0.000000 -0.983851
vn -0.553665 -0.000000 -0.832740
vn 0.553665 -0.257331 -0.791982
vn 0.178987 -0.304027 -0.935698
vn -0.178987 -0.304027 -0.935698
vn -0.553665 -0.257331 -0.791982
vn 0.553665 -0.489472 -0.673700
vn 0.178987 -0.578294 -0.795952
vn -0.178988 -0.578294 -0.795952
vn -0.553665 -0.489472 -0.673700
vn 0.553665 -0.673701 -0.489472
vn 0.178987 -0.795953 -0.578293
vn -0.178987 -0.795953 -0.578293
vn -0.553665 -0.673701 -0.489472
vn 0.553665 -0.791982 -0.257331
vn 0.178987 -0.935698 -0.304027
vn -0.178988 -0.935698 -0.304027
vn -0.553665 -0.791983 -0.257331
vn 0.553665 -0.832740 0.000000
vn 0.178987 -0.983851 0.000000
vn -0.178987 -0.983851 -0.000000
vn -0.553665 -0.832740 -0.000000
vn 0.553665 -0.791982 0.257331
vn 0.178988 -0.935698 0.304027
vn -0.178987 -0.935698 0.304027
vn -0.553665 -0.791982 0.257331
vn 0.553665 -0.673701 0.489472
vn 0.178987 -0.795952 0.578293
vn -0.178987 -0.795952 0.578293
vn -0.553665 -0.673700 0.489472
vn 0.553665 -0.489472 0.673701
vn 0.178987 -0.578293 0.795953
vn -0.178987 -0.578293 0.795952
vn -0.553665 -0.489472 0.673700
vn 0.553665 -0.257331 0.791982
vn 0.178987 -0.304027 0.935698
vn -0.178987 -0.304027 0.935698
vn -0.553665 -0.257331 0.791982
vn 0.553665 -0.000000 0.832740
vn 0.178988 -0.000000 0.983851
vn -0.178987 -0.000000 0.983851
vn -0.553665 0.000000 0.832740
vn 0.553665 0.257331 0.791982
vn 0.178987 0.304027 0.935698
vn -0.178987 0.304027 0.935698
vn -0.553665 0.257331 0.791982
vn 0.553665 0.489472 0.673700
vn 0.178987 0.578293 0.795952
vn -0.178987 0.578293 0.795952
vn -0.553665 0.489472 0.673700
vn 0.553665 0.673701 0.489472
vn 0.178987 0.795952 0.578293
vn -0.178987 0.795953 0.578293
vn -0.553665 0.673701 0.489472
vn 0.553665 0.791982 0.257331
vn 0.178987 0.935698 0.304027
vn -0.178987 0.935698 0.304027
vn -0.553665 0.791983 0.257331
vn 0.684967 0.692916 -0.225141
vn 0.684967 0.589429 -0.428245
vn -0.684966 0.589429 -0.428246
vn -0.684967 0.692916 -0.225141
vn 0.684966 0.428245 -0.589429
vn -0.684966 0.428245 -0.589429
vn 0.684967 0.225142 -0.692915
vn -0.684967 0.225142 -0.692915
vn 0.684967 -0.000000 -0.728574
vn -0.684967 -0.000000 -0.728574
vn 0.684967 -0.225142 -0.692915
vn -0.684967 -0.225142 -0.692915
vn 0.684967 -0.428245 -0.589429
vn -0.684967 -0.428246 -0.589429
vn 0.684966 -0.589429 -0.428245
vn -0.684967 -0.589429 -0.428245
vn 0.684967 -0.692915 -0.225142
vn -0.684966 -0.692916 -0.225142
vn 0.684967 -0.728575 0.000000
vn -0.684967 -0.728575 -0.000000
vn 0.684966 -0.692916 0.225142
vn -0.684967 -0.692915 0.225142
vn 0.684967 -0.589429 0.428246
vn -0.684967 -0.589429 0.428246
vn 0.684967 -0.428245 0.589429
vn -0.684966 -0.428245 0.589429
vn 0.684967 -0.225142 0.692915
vn -0.684967 -0.225142 0.692915
vn 0.684967 0.000000 0.728574
vn -0.684967 0.000000 0.728574
vn 0.684967 0.225142 0.692915
vn -0.684967 0.225142 0.692915
vn 0.684967 0.428245 0.589429
vn -0.684967 0.428245 0.589429
vn 0.684967 0.589429 0.428245
vn -0.684967 0.589429 0.428245
vn 0.684967 0.692916 0.225142
vn -0.684967 0.692916 0.225142
vn 0.684966 0.728575 0.000001
vn -0.684966 0.728575 0.000001
s 1
g pCylinder1
usemtl initialShadingGroup
f 41/170/1 42/3/2 43/210/3 44/5/4
f 44/5/4 43/210/3 45/208/5 46/8/6
f 46/8/6 45/208/5 47/206/7 48/10/8
f 48/10/8 47/206/7 49/204/9 50/12/10
f 50/12/10 49/204/9 51/202/11 52/14/12
f 52/14/12 51/202/11 53/200/13 54/16/14
f 54/16/14 53/200/13 55/198/15 56/18/16
f 56/18/16 55/198/15 57/196/17 58/20/18
f 58/20/18 57/196/17 59/194/19 60/22/20
f 60/22/20 59/194/19 61/192/21 62/24/22
f 62/24/22 61/192/21 63/190/23 64/26/24
f 64/26/24 63/190/23 65/188/25 66/28/26
f 66/28/26 65/188/25 67/186/27 68/30/28
f 68/30/28 67/186/27 69/184/29 70/32/30
f 70/32/30 69/184/29 71/182/31 72/34/32
f 72/34/32 71/182/31 73/180/33 74/36/34
f 74/36/34 73/180/33 75/178/35 76/38/36
f 76/38/36 75/178/35 77/176/37 78/40/38
f 78/40/38 77/176/37 79/172/39 80/42/40
f 80/42/40 79/172/39 42/43/2 41/171/1
s 2
f 21/71/41 22/75/42 43/4/43 42/173/44
s 3
f 2/69/45 1/1/46 41/6/47 44/209/48
s 2
f 22/75/42 23/79/49 45/7/50 43/4/43
s 3
f 3/73/51 2/69/45 44/209/48 46/207/52
s 2
f 23/79/49 24/83/53 47/9/54 45/7/50
s 3
f 4/77/55 3/73/51 46/207/52 48/205/56
s 2
f 24/83/53 25/87/57 49/11/58 47/9/54
s 3
f 5/81/59 4/77/55 48/205/56 50/203/60
s 2
f 25/87/57 26/91/61 51/13/62 49/11/58
s 3
f 6/85/63 5/81/59 50/203/60 52/201/64
s 2
f 26/91/61 27/95/65 53/15/66 51/13/62
s 3
f 7/89/67 6/85/63 52/201/64 54/199/68
s 2
f 27/95/65 28/99/69 55/17/70 53/15/66
s 3
f 8/93/71 7/89/67 54/199/68 56/197/72
s 2
f 28/99/69 29/103/73 57/19/74 55/17/70
s 3
f 9/97/75 8/93/71 56/197/72 58/195/76
s 2
f 29/103/73 30/107/77 59/21/78 57/19/74
s 3
f 10/101/79 9/97/75 58/195/76 60/193/80
s 2
f 30/107/77 31/111/81 61/23/82 59/21/78
s 3
f 11/105/83 10/101/79 60/193/80 62/191/84
s 2
f 31/111/81 32/115/85 63/25/86 61/23/82
s 3
f 12/109/87 11/105/83 62/191/84 64/189/88
s 2
f 32/115/85 33/119/89 65/27/90 63/25/86
s 3
f 13/113/91 12/109/87 64/189/88 66/187/92
s 2
f 33/119/89 34/123/93 67/29/94 65/27/90
s 3
f 14/117/95 13/113/91 66/187/92 68/185/96
s 2
f 34/123/93 35/127/97 69/31/98 67/29/94
s 3
f 15/121/99 14/117/95 68/185/96 70/183/100
s 2
f 35/127/97 36/131/101 71/33/102 69/31/98
s 3
f 16/125/103 15/121/99 70/183/100 72/181/104
s 2
f 36/131/101 37/135/105 73/35/106 71/33/102
s 3
f 17/129/107 16/125/103 72/181/104 74/179/108
s 2
f 37/135/105 38/139/109 75/37/110 73/35/106
s 3
f 18/133/111 17/129/107 74/179/108 76/177/112
s 2
f 38/139/109 39/143/113 77/39/114 75/37/110
s 3
f 19/137/115 18/133/111 76/177/112 78/175/116
s 2
f 39/143/113 40/147/117 79/41/118 77/39/114
s 3
f 20/141/119 19/137/115 78/175/116 80/169/120
s 2
f 40/147/117 21/2/41 42/174/44 79/41/118
s 3
f 1/145/46 20/141/119 80/169/120 41/44/47
s 4
f 81/45/121 82/68/122 157/67/123 158/146/124
f 82/46/122 81/70/121 84/74/125 83/49/126
f 83/49/126 84/74/125 90/78/127 89/50/128
f 85/72/129 86/162/130 92/161/131 91/76/132
f 86/162/130 85/72/129 87/47/133 88/163/134
f 88/48/134 87/148/133 159/144/135 160/164/136
f 89/50/128 90/78/127 94/82/137 93/51/138
f 91/76/132 92/161/131 96/160/139 95/80/140
f 93/51/138 94/82/137 98/86/141 97/52/142
f 95/80/140 96/160/139 100/159/143 99/84/144
f 97/52/142 98/86/141 102/90/145 101/53/146
f 99/84/144 100/159/143 104/158/147 103/88/148
f 101/53/146 102/90/145 106/94/149 105/54/150
f 103/88/148 104/158/147 108/157/151 107/92/152
f 105/54/150 106/94/149 110/98/153 109/55/154
f 107/92/152 108/157/151 112/156/155 111/96/156
f 109/55/154 110/98/153 114/102/157 113/56/158
f 111/96/156 112/156/155 116/155/159 115/100/160
f 113/56/158 114/102/157 118/106/161 117/57/162
f 115/100/160 116/155/159 120/154/163 119/104/164
f 117/57/162 118/106/161 122/110/165 121/58/166
f 119/104/164 120/154/163 124/153/167 123/108/168
f 121/58/166 122/110/165 126/114/169 125/59/170
f 123/108/168 124/153/167 128/152/171 127/112/172
f 125/59/170 126/114/169 130/118/173 129/60/174
f 127/112/172 128/152/171 132/151/175 131/116/176
f 129/60/174 130/118/173 134/122/177 133/61/178
f 131/116/176 132/151/175 136/150/179 135/120/180
f 133/61/178 134/122/177 138/126/181 137/62/182
f 135/120/180 136/150/179 140/149/183 139/124/184
f 137/62/182 138/126/181 142/130/185 141/63/186
f 139/124/184 140/149/183 144/168/187 143/128/188
f 141/63/186 142/130/185 146/134/189 145/64/190
f 143/128/188 144/168/187 148/167/191 147/132/192
f 145/64/190 146/134/189 150/138/193 149/65/194
f 147/132/192 148/167/191 152/166/195 151/136/196
f 149/65/194 150/138/193 154/142/197 153/66/198
f 151/136/196 152/166/195 156/165/199 155/140/200
f 153/66/198 154/142/197 158/146/124 157/67/123
f 155/140/200 156/165/199 160/164/136 159/144/135
f 82/46/122 83/49/126 86/162/130 88/163/134
f 83/49/126 89/50/128 92/161/131 86/162/130
f 89/50/128 93/51/138 96/160/139 92/161/131
f 93/51/138 97/52/142 100/159/143 96/160/139
f 97/52/142 101/53/146 104/158/147 100/159/143
f 101/53/146 105/54/150 108/157/151 104/158/147
f 105/54/150 109/55/154 112/156/155 108/157/151
f 109/55/154 113/56/158 116/155/159 112/156/155
f 113/56/158 117/57/162 120/154/163 116/155/159
f 117/57/162 121/58/166 124/153/167 120/154/163
f 121/58/166 125/59/170 128/152/171 124/153/167
f 125/59/170 129/60/174 132/151/175 128/152/171
f 129/60/174 133/61/178 136/150/179 132/151/175
f 133/61/178 137/62/182 140/149/183 136/150/179
f 137/62/182 141/63/186 144/168/187 140/149/183
f 141/63/186 145/64/190 148/167/191 144/168/187
f 145/64/190 149/65/194 152/166/195 148/167/191
f 149/65/194 153/66/198 156/165/199 152/166/195
f 153/66/198 157/67/123 160/164/136 156/165/199
f 157/67/123 82/68/122 88/48/134 160/164/136
f 1/1/201 2/69/202 84/74/125 81/70/121
f 22/75/203 21/71/204 87/47/133 85/72/129
f 2/69/202 3/73/205 90/78/127 84/74/125
f 23/79/206 22/75/203 85/72/129 91/76/132
f 3/73/205 4/77/207 94/82/137 90/78/127
f 24/83/208 23/79/206 91/76/132 95/80/140
f 4/77/207 5/81/209 98/86/141 94/82/137
f 25/87/210 24/83/208 95/80/140 99/84/144
f 5/81/209 6/85/211 102/90/145 98/86/141
f 26/91/212 25/87/210 99/84/144 103/88/148
f 6/85/211 7/89/213 106/94/149 102/90/145
f 27/95/214 26/91/212 103/88/148 107/92/152
f 7/89/213 8/93/215 110/98/153 106/94/149
f 28/99/216 27/95/214 107/92/152 111/96/156
f 8/93/215 9/97/217 114/102/157 110/98/153
f 29/103/218 28/99/216 111/96/156 115/100/160
f 9/97/217 10/101/219 118/106/161 114/102/157
f 30/107/220 29/103/218 115/100/160 119/104/164
f 10/101/219 11/105/221 122/110/165 118/106/161
f 31/111/222 30/107/220 119/104/164 123/108/168
f 11/105/221 12/109/223 126/114/169 122/110/165
f 32/115/224 31/111/222 123/108/168 127/112/172
f 12/109/223 13/113/225 130/118/173 126/114/169
f 33/119/226 32/115/224 127/112/172 131/116/176
f 13/113/225 14/117/227 134/122/177 130/118/173
f 34/123/228 33/119/226 131/116/176 135/120/180
f 14/117/227 15/121/229 138/126/181 134/122/177
f 35/127/230 34/123/228 135/120/180 139/124/184
f 15/121/229 16/125/231 142/130/185 138/126/181
f 36/131/232 35/127/230 139/124/184 143/128/188
f 16/125/231 17/129/233 146/134/189 142/130/185
f 37/135/234 36/131/232 143/128/188 147/132/192
f 17/129/233 18/133/235 150/138/193 146/134/189
f 38/139/236 37/135/234 147/132/192 151/136/196
f 18/133/235 19/137/237 154/142/197 150/138/193
f 39/143/238 38/139/236 151/136/196 155/140/200
f 19/137/237 20/141/239 158/146/124 154/142/197
f 40/147/240 39/143/238 155/140/200 159/144/135
f 20/141/239 1/145/201 81/45/121 158/146/124
f 21/2/204 40/147/240 159/144/135 87/148/133
